^C:\USERS\CHINN\DROPBOX\NOTES\OOD\EX PROJ\CODEANALYZEREX\ANALYZER\X64\DEBUG\ABSTRSYNTREE.OBJ|C:\USERS\CHINN\DROPBOX\NOTES\OOD\EX PROJ\CODEANALYZEREX\ANALYZER\X64\DEBUG\ACTIONSANDRULES.OBJ|C:\USERS\CHINN\DROPBOX\NOTES\OOD\EX PROJ\CODEANALYZEREX\ANALYZER\X64\DEBUG\CONFIGUREPARSER.OBJ|C:\USERS\CHINN\DROPBOX\NOTES\OOD\EX PROJ\CODEANALYZEREX\ANALYZER\X64\DEBUG\DEPANAL.OBJ|C:\USERS\CHINN\DROPBOX\NOTES\OOD\EX PROJ\CODEANALYZEREX\ANALYZER\X64\DEBUG\EXECUTIVE.OBJ|C:\USERS\CHINN\DROPBOX\NOTES\OOD\EX PROJ\CODEANALYZEREX\ANALYZER\X64\DEBUG\FILEMGR.OBJ|C:\USERS\CHINN\DROPBOX\NOTES\OOD\EX PROJ\CODEANALYZEREX\ANALYZER\X64\DEBUG\FILESYSTEM.OBJ|C:\USERS\CHINN\DROPBOX\NOTES\OOD\EX PROJ\CODEANALYZEREX\ANALYZER\X64\DEBUG\GRAMMARHELPERS.OBJ|C:\USERS\CHINN\DROPBOX\NOTES\OOD\EX PROJ\CODEANALYZEREX\ANALYZER\X64\DEBUG\LOGGER.OBJ|C:\USERS\CHINN\DROPBOX\NOTES\OOD\EX PROJ\CODEANALYZEREX\ANALYZER\X64\DEBUG\PARSER.OBJ|C:\USERS\CHINN\DROPBOX\NOTES\OOD\EX PROJ\CODEANALYZEREX\ANALYZER\X64\DEBUG\SCOPESTACK.OBJ|C:\USERS\CHINN\DROPBOX\NOTES\OOD\EX PROJ\CODEANALYZEREX\ANALYZER\X64\DEBUG\SEMIEXP.OBJ|C:\USERS\CHINN\DROPBOX\NOTES\OOD\EX PROJ\CODEANALYZEREX\ANALYZER\X64\DEBUG\TOKENIZER.OBJ|C:\USERS\CHINN\DROPBOX\NOTES\OOD\EX PROJ\CODEANALYZEREX\ANALYZER\X64\DEBUG\UTILITIES.OBJ
C:\USERS\CHINN\DROPBOX\NOTES\OOD\EX PROJ\CODEANALYZEREX\X64\DEBUG\CODEANALYZER.ILK
C:\USERS\CHINN\DROPBOX\NOTES\OOD\EX PROJ\CODEANALYZEREX\X64\DEBUG\CODEANALYZER.EXE
C:\USERS\CHINN\DROPBOX\NOTES\OOD\EX PROJ\CODEANALYZEREX\X64\DEBUG\CODEANALYZER.PDB
